module github.com/MuShaf-NMS/absensi

go 1.17

require github.com/gin-gonic/gin v1.8.1

require (
	github.com/gin-contrib/cors v1.4.0
	github.com/go-sql-driver/mysql v1.6.0
	github.com/golang-jwt/jwt/v4 v4.4.2
)

require (
	github.com/armon/go-metrics v0.3.9 // indirect
	github.com/armon/go-radix v1.0.0 // indirect
	github.com/cenkalti/backoff/v3 v3.0.0 // indirect
	github.com/fatih/color v1.7.0 // indirect
	github.com/gin-contrib/sse v0.1.0 // indirect
	github.com/go-playground/locales v0.14.0 // indirect
	github.com/go-playground/universal-translator v0.18.0 // indirect
	github.com/golang/protobuf v1.5.2 // indirect
	github.com/golang/snappy v0.0.4 // indirect
	github.com/hashicorp/errwrap v1.1.0 // indirect
	github.com/hashicorp/go-cleanhttp v0.5.2 // indirect
	github.com/hashicorp/go-hclog v0.16.2 // indirect
	github.com/hashicorp/go-immutable-radix v1.3.1 // indirect
	github.com/hashicorp/go-multierror v1.1.1 // indirect
	github.com/hashicorp/go-plugin v1.4.3 // indirect
	github.com/hashicorp/go-retryablehttp v0.6.6 // indirect
	github.com/hashicorp/go-rootcerts v1.0.2 // indirect
	github.com/hashicorp/go-secure-stdlib/mlock v0.1.1 // indirect
	github.com/hashicorp/go-secure-stdlib/parseutil v0.1.6 // indirect
	github.com/hashicorp/go-secure-stdlib/strutil v0.1.2 // indirect
	github.com/hashicorp/go-sockaddr v1.0.2 // indirect
	github.com/hashicorp/go-uuid v1.0.2 // indirect
	github.com/hashicorp/go-version v1.2.0 // indirect
	github.com/hashicorp/golang-lru v0.5.4 // indirect
	github.com/hashicorp/hcl v1.0.0 // indirect
	github.com/hashicorp/vault/api v1.7.2 // indirect
	github.com/hashicorp/vault/sdk v0.5.1 // indirect
	github.com/hashicorp/yamux v0.0.0-20180604194846-3520598351bb // indirect
	github.com/jinzhu/inflection v1.0.0 // indirect
	github.com/jinzhu/now v1.1.5 // indirect
	github.com/json-iterator/go v1.1.12 // indirect
	github.com/leodido/go-urn v1.2.1 // indirect
	github.com/mattn/go-colorable v0.1.6 // indirect
	github.com/mattn/go-isatty v0.0.14 // indirect
	github.com/mitchellh/copystructure v1.0.0 // indirect
	github.com/mitchellh/go-homedir v1.1.0 // indirect
	github.com/mitchellh/go-testing-interface v1.0.0 // indirect
	github.com/mitchellh/mapstructure v1.5.0 // indirect
	github.com/mitchellh/reflectwalk v1.0.0 // indirect
	github.com/modern-go/reflect2 v1.0.2 // indirect
	github.com/oklog/run v1.0.0 // indirect
	github.com/pierrec/lz4 v2.5.2+incompatible // indirect
	github.com/ryanuber/go-glob v1.0.0 // indirect
	github.com/ugorji/go/codec v1.2.7 // indirect
	go.uber.org/atomic v1.9.0 // indirect
	golang.org/x/text v0.3.7 // indirect
	golang.org/x/time v0.0.0-20200416051211-89c76fbcd5d1 // indirect
	google.golang.org/genproto v0.0.0-20200526211855-cb27e3aa2013 // indirect
	google.golang.org/grpc v1.41.0 // indirect
	google.golang.org/protobuf v1.28.0 // indirect
	gopkg.in/square/go-jose.v2 v2.5.1 // indirect
	gopkg.in/yaml.v2 v2.4.0 // indirect
)

require (
	github.com/go-playground/validator/v10 v10.11.0
	github.com/goccy/go-json v0.9.10 // indirect
	github.com/google/uuid v1.3.0
	github.com/hashicorp/vault/api/auth/userpass v0.2.0
	github.com/joho/godotenv v1.4.0
	github.com/modern-go/concurrent v0.0.0-20180306012644-bacd9c7ef1dd // indirect
	github.com/pelletier/go-toml/v2 v2.0.2 // indirect
	golang.org/x/crypto v0.0.0-20220722155217-630584e8d5aa
	golang.org/x/net v0.0.0-20220708220712-1185a9018129 // indirect
	golang.org/x/sys v0.0.0-20220715151400-c0bba94af5f8 // indirect
	gorm.io/datatypes v1.0.7
	gorm.io/driver/mysql v1.3.5
	gorm.io/gorm v1.23.8
)
